<?xml version="1.0" encoding="UTF-8" standalone="no"?>
<!-- Created with Inkscape (http://www.inkscape.org/) -->

<svg
   xmlns:dc="http://purl.org/dc/elements/1.1/"
   xmlns:cc="http://creativecommons.org/ns#"
   xmlns:rdf="http://www.w3.org/1999/02/22-rdf-syntax-ns#"
   xmlns:svg="http://www.w3.org/2000/svg"
   xmlns="http://www.w3.org/2000/svg"
   xmlns:sodipodi="http://sodipodi.sourceforge.net/DTD/sodipodi-0.dtd"
   xmlns:inkscape="http://www.inkscape.org/namespaces/inkscape"
   width="71.295517"
   height="101.97436"
   viewBox="0 0 18.863606 26.980717"
   version="1.1"
   id="svg8492"
   inkscape:version="0.92.4 (f8dce91, 2019-08-02)"
   sodipodi:docname="element_graphique_debut.svg">
  <defs
     id="defs8486">
    <clipPath
       id="clipPath7139"
       clipPathUnits="userSpaceOnUse">
      <path
         inkscape:connector-curvature="0"
         id="path7137"
         d="M 0,0 H 841.89 V 595.276 H 0 Z" />
    </clipPath>
  </defs>
  <sodipodi:namedview
     id="base"
     pagecolor="#ffffff"
     bordercolor="#666666"
     borderopacity="1.0"
     inkscape:pageopacity="0.0"
     inkscape:pageshadow="2"
     inkscape:zoom="0.35"
     inkscape:cx="572.82271"
     inkscape:cy="-318.98074"
     inkscape:document-units="mm"
     inkscape:current-layer="layer1"
     showgrid="false"
     fit-margin-top="0"
     fit-margin-left="0"
     fit-margin-right="0"
     fit-margin-bottom="0"
     inkscape:window-width="1600"
     inkscape:window-height="873"
     inkscape:window-x="0"
     inkscape:window-y="27"
     inkscape:window-maximized="1"
     units="px" />
  <metadata
     id="metadata8489">
    <rdf:RDF>
      <cc:Work
         rdf:about="">
        <dc:format>image/svg+xml</dc:format>
        <dc:type
           rdf:resource="http://purl.org/dc/dcmitype/StillImage" />
        <dc:title></dc:title>
      </cc:Work>
    </rdf:RDF>
  </metadata>
  <g
     inkscape:label="Calque 1"
     inkscape:groupmode="layer"
     id="layer1"
     transform="translate(-182.94958,-67.693721)">
    <g
       id="g7599"
       transform="matrix(1.833592,0,0,1.833592,46.661502,-331.62952)">
      <g
         transform="matrix(0.35277777,0,0,-0.35277777,-3.1689466,370.2821)"
         id="g7135"
         clip-path="url(#clipPath7139)">
        <g
           id="g7141"
           transform="translate(232.9168,407.054)">
          <path
             d="M 0,0 -0.018,0.01 -0.02,0.013 Z m -6.26,-5.275 c -0.003,0.004 -0.008,0.009 -0.008,0.009 l -0.044,0.041 z m 22.014,6.212 c -0.272,-1.487 -0.261,-2.615 -0.55,-3.968 l -0.154,-0.35 c 0.007,-0.255 0.031,-0.267 -0.029,-0.609 -0.005,0.191 -0.069,-0.023 -0.113,-0.123 l 0.012,-0.382 c -0.162,-0.097 0.092,-0.978 -0.072,-1.013 L 14.72,-5.631 c -0.359,-1.501 -0.597,-3.14 -0.812,-4.813 -0.106,-0.835 -0.214,-1.682 -0.32,-2.522 -0.063,-0.453 -0.125,-0.905 -0.186,-1.353 -0.113,-0.726 -0.225,-1.446 -0.336,-2.162 -0.237,0.126 -0.469,0.249 -0.701,0.373 -0.33,0.202 -0.615,0.389 -0.868,0.561 -0.238,0.165 -0.517,0.354 -0.61,0.442 -0.267,0.22 -0.541,0.432 -0.916,0.644 l -0.059,-0.13 c -0.548,0.239 -0.062,0.166 -0.591,0.499 l 0.125,-0.26 -1.054,0.516 0.183,-0.056 c -0.365,0.185 -0.786,0.362 -0.825,0.279 -0.024,0.104 0.091,0.114 -0.373,0.36 -0.105,-0.181 -0.793,0.161 -1.445,0.468 0.026,0.015 -0.211,0.163 -0.023,0.103 -1.505,0.487 -2.072,1.315 -3.542,1.767 l 0.027,0.015 c -1,0.682 -1.529,0.711 -2.653,1.432 l -0.002,-0.119 c -0.541,0.317 -1.153,0.639 -1.811,0.895 l 0.093,-0.006 c -0.15,0.07 -0.299,0.139 -0.451,0.222 l 0.028,0.014 c -0.2,0.071 -0.593,0.338 -0.977,0.522 l 0.029,0.012 c -0.21,0.196 -0.494,0.364 -0.743,0.506 -0.065,0.09 -0.132,0.175 -0.193,0.267 -0.729,0.417 -1.456,1.421 -1.982,1.889 -0.909,1.155 -1.663,2.611 -2.041,4.079 -0.427,1.532 -0.399,2.554 -0.352,3.524 0.129,0.967 0.248,1.927 0.753,3.346 0.511,1.632 1.112,2.732 1.768,3.702 0.657,0.97 1.459,1.786 2.696,2.549 0,0 0.305,0.201 0.685,0.398 0.394,0.177 0.853,0.362 1.12,0.409 0.261,0.026 0.344,-0.049 0.003,-0.403 -0.22,-0.244 -0.662,-0.583 -1.259,-1.164 0.491,0.351 1.005,0.679 1.562,0.959 0.127,0.064 0.257,0.112 0.385,0.171 -0.238,-0.035 -0.397,-0.046 -0.47,-0.003 -0.224,0.082 0.316,0.486 1.199,0.904 0.885,0.417 2.141,0.713 3.174,0.822 0.516,0.032 0.975,0.047 1.303,0.047 0.327,-0.022 0.525,-0.035 0.525,-0.035 0.436,-0.019 0.867,-0.088 1.295,-0.169 0.433,-0.058 0.849,-0.194 1.27,-0.305 0.002,0.016 0.252,0.008 0.333,-0.046 1.414,-0.303 2.784,-1.132 3.893,-2.169 1.122,-1.04 1.979,-2.27 2.739,-3.428 0.548,-0.822 1.12,-2.081 1.399,-3.406 0.292,-1.323 0.257,-2.684 0.042,-3.579 m -16.323,2.3 -0.024,0.012 C -0.832,2.875 -0.635,2.673 -0.782,2.232 l 0.105,0.014 C -0.703,2.039 -0.703,1.794 -0.596,1.576 l -0.04,0.023 0.029,-0.157 -0.026,0.001 C -0.595,1.384 -0.594,1.231 -0.504,1.117 H -0.53 C -0.561,1.018 -0.504,0.924 -0.431,0.855 L -0.483,0.734 c 0.192,-0.199 0.215,-0.613 0.465,-0.724 0.239,-0.381 0.571,-0.736 0.901,-1.041 0.383,-0.283 0.6,-0.444 0.856,-0.633 0.241,-0.177 0.493,-0.355 0.949,-0.499 0.539,-0.081 0.929,0.011 1.273,0.077 0.345,0.093 0.652,0.14 1.099,0.18 0.005,-0.013 0.433,0.085 0.673,-0.003 0.129,-0.034 0.19,-0.139 0.099,-0.341 -0.062,-0.129 -0.201,-0.323 -0.464,-0.541 0.226,0.077 0.451,0.164 0.671,0.274 0.05,0.026 0.095,0.056 0.144,0.082 -0.112,0.02 -0.19,0.053 -0.229,0.087 -0.13,0.13 0.029,0.35 0.273,0.578 0.232,0.249 0.547,0.528 0.76,0.795 0.115,0.125 0.207,0.242 0.268,0.331 0.066,0.085 0.105,0.136 0.105,0.136 0.17,0.228 0.322,0.471 0.449,0.727 -0.017,0.008 -0.024,0.097 0.005,0.117 0.059,0.476 0.26,0.908 0.398,1.4 C 8.348,2.219 8.411,2.766 8.176,3.194 7.949,3.849 7.241,4.693 6.965,5.236 6.633,5.623 6.201,5.711 5.842,6.004 L 5.773,6.147 C 5.673,6.143 5.66,6.121 5.557,6.18 5.629,6.183 5.573,6.245 5.551,6.288 L 5.401,6.268 C 5.409,6.418 5.016,6.16 5.048,6.307 L 5.033,6.422 C 4.534,6.711 3.885,6.761 3.279,6.648 2.665,6.537 2.101,6.278 1.569,6.021 1.266,5.981 0.999,6.05 0.721,5.886 L 0.811,5.775 C 0.677,5.601 0.702,5.837 0.496,5.723 L 0.673,5.648 C 0.575,5.548 0.472,5.454 0.389,5.34 L 0.41,5.414 C 0.314,5.302 0.23,5.159 0.3,5.1 0.226,5.133 0.192,5.208 0.077,5.059 0.243,4.918 0.073,4.716 -0.02,4.485 -0.039,4.503 -0.108,4.433 -0.1,4.508 -0.138,3.935 -0.695,3.837 -0.569,3.237"
             style="fill:#ed1c24;fill-opacity:1;fill-rule:nonzero;stroke:none"
             id="path7143"
             inkscape:connector-curvature="0" />
        </g>
        <g
           id="g7145"
           transform="translate(231.4447,420.1309)">
          <path
             d="M 0,0 2.483,3.094 2.792,5.982 3.281,8.372 2.604,12.153 1.158,9.467 -0.494,7.356 -0.907,3.714 -2.925,5.983 c 0,0 -0.509,0.665 -0.793,0.829 -0.284,0.165 -3.069,-0.481 -3.069,-0.481 0,0 -2.874,0.41 -2.712,0.148 0.161,-0.261 1.403,-2.537 1.475,-2.914 0.072,-0.377 -0.708,-1.325 0.29,-1.67 0.998,-0.344 2.087,-0.897 2.46,-0.915 0.372,-0.019 2.308,0.079 2.308,0.079 L -5.257,0.177 c 0,0 -1.524,0.223 -1.798,-0.045 -0.275,-0.267 -2.204,-1.901 -2.204,-1.901 l -2.508,-1.209 c 0.416,-0.569 1.243,-1.008 1.711,-0.895 0.467,0.114 0.667,-0.214 1.558,0.129 0.891,0.343 4.046,1.639 4.519,1.74 0.473,0.102 1.527,1.06 1.527,1.06 l 0.13,1.279 z"
             style="fill:#40b93e;fill-opacity:1;fill-rule:nonzero;stroke:none"
             id="path7147"
             inkscape:connector-curvature="0" />
        </g>
      </g>
    </g>
  </g>
</svg>
