<?xml version="1.0" encoding="UTF-8" standalone="no"?>
<!-- Created with Inkscape (http://www.inkscape.org/) -->

<svg
   xmlns:dc="http://purl.org/dc/elements/1.1/"
   xmlns:cc="http://creativecommons.org/ns#"
   xmlns:rdf="http://www.w3.org/1999/02/22-rdf-syntax-ns#"
   xmlns:svg="http://www.w3.org/2000/svg"
   xmlns="http://www.w3.org/2000/svg"
   xmlns:sodipodi="http://sodipodi.sourceforge.net/DTD/sodipodi-0.dtd"
   xmlns:inkscape="http://www.inkscape.org/namespaces/inkscape"
   width="191.80002"
   height="191.79999"
   viewBox="0 0 50.74709 50.747082"
   version="1.1"
   id="svg8492"
   inkscape:version="0.92.4 (f8dce91, 2019-08-02)"
   sodipodi:docname="logo_type_noir.svg">
  <defs
     id="defs8486" />
  <sodipodi:namedview
     id="base"
     pagecolor="#ffffff"
     bordercolor="#666666"
     borderopacity="1.0"
     inkscape:pageopacity="0.0"
     inkscape:pageshadow="2"
     inkscape:zoom="0.35"
     inkscape:cx="450.74286"
     inkscape:cy="-224.97144"
     inkscape:document-units="mm"
     inkscape:current-layer="layer1"
     showgrid="false"
     fit-margin-top="0"
     fit-margin-left="0"
     fit-margin-right="0"
     fit-margin-bottom="0"
     inkscape:window-width="1600"
     inkscape:window-height="873"
     inkscape:window-x="0"
     inkscape:window-y="27"
     inkscape:window-maximized="1"
     units="px" />
  <metadata
     id="metadata8489">
    <rdf:RDF>
      <cc:Work
         rdf:about="">
        <dc:format>image/svg+xml</dc:format>
        <dc:type
           rdf:resource="http://purl.org/dc/dcmitype/StillImage" />
        <dc:title></dc:title>
      </cc:Work>
    </rdf:RDF>
  </metadata>
  <g
     inkscape:label="Calque 1"
     inkscape:groupmode="layer"
     id="layer1"
     transform="translate(-215.24987,-68.800655)">
    <g
       id="g6713"
       transform="translate(136.48562,-65.874625)">
      <path
         inkscape:connector-curvature="0"
         id="path4908"
         style="fill:#000000;fill-opacity:1;fill-rule:nonzero;stroke:none;stroke-width:0.35277778"
         d="m 78.76425,185.42236 h 50.74709 V 134.67528 H 78.76425 Z" />
      <g
         transform="matrix(0.35277777,0,0,-0.35277777,108.21488,150.34884)"
         id="g4918">
        <path
           inkscape:connector-curvature="0"
           id="path4920"
           style="fill:#ffffff;fill-opacity:1;fill-rule:nonzero;stroke:none"
           d="m 0,0 0.055,0.09 c -0.161,0.761 -0.612,1.509 -1.214,2.1 -0.601,0.598 -1.338,1.036 -2.08,1.37 -0.327,0.233 -0.518,0.453 -0.925,0.584 L -4.185,4.036 c -0.291,0.017 -0.043,0.1 -0.339,0.19 L -4.435,4.075 C -4.623,4.102 -4.81,4.127 -5,4.123 l 0.094,0.021 c -0.2,0.009 -0.42,-0.004 -0.419,-0.075 -0.032,0.064 0.017,0.116 -0.238,0.108 -0.005,-0.168 -0.368,-0.168 -0.7,-0.251 0.006,0.02 -0.128,0.019 -0.04,0.057 C -6.481,3.914 -6.636,3.863 -6.785,3.827 -6.934,3.789 -7.082,3.789 -7.222,3.754 -7.364,3.726 -7.507,3.697 -7.652,3.649 -7.794,3.593 -7.934,3.505 -8.075,3.384 L -8.077,3.405 C -8.64,3.244 -8.751,2.977 -9.307,2.673 l 0.07,-0.049 C -9.478,2.456 -9.732,2.235 -9.908,1.957 l 0.006,0.047 -0.151,-0.167 -0.01,0.019 C -10.103,1.77 -10.254,1.623 -10.33,1.449 l -0.012,0.018 c -0.111,-0.071 -0.172,-0.208 -0.21,-0.332 l -0.133,-0.08 c -0.064,-0.173 -0.174,-0.367 -0.273,-0.561 -0.11,-0.188 -0.191,-0.384 -0.189,-0.548 -0.232,-0.593 -0.366,-1.274 -0.421,-1.914 -0.021,-0.674 0.002,-1.094 0.029,-1.513 0.028,-0.207 0.025,-0.421 0.085,-0.653 0.025,-0.119 0.051,-0.244 0.08,-0.378 0.046,-0.132 0.095,-0.274 0.15,-0.429 0.333,-0.677 0.701,-1.078 1.049,-1.428 0.364,-0.338 0.687,-0.654 1.156,-1.058 0,0 0.113,-0.107 0.26,-0.221 0.147,-0.113 0.314,-0.258 0.388,-0.377 0.089,-0.116 0.059,-0.209 -0.192,-0.207 -0.124,0.002 -0.306,0.029 -0.57,0.091 -0.079,0.029 -0.171,0.061 -0.269,0.097 0.257,-0.168 0.523,-0.326 0.809,-0.459 0.066,-0.03 0.134,-0.051 0.199,-0.079 -0.085,0.095 -0.129,0.171 -0.137,0.211 -0.014,0.156 0.319,0.11 0.754,0.008 0.447,-0.073 1.013,-0.188 1.481,-0.185 0.232,-0.019 0.437,-0.005 0.584,10e-4 0.147,0.005 0.236,0.008 0.236,0.008 l 0.584,0.065 c 0.192,0.035 0.383,0.083 0.576,0.122 -0.004,0.011 0.089,0.08 0.132,0.078 0.584,0.274 1.21,0.519 1.817,0.854 0.596,0.338 1.176,0.776 1.48,1.352 0.13,0.186 0.239,0.437 0.382,0.683 0.105,0.269 0.256,0.535 0.343,0.825 0.228,0.561 0.343,1.137 0.497,1.53 0.124,0.686 -0.019,1.242 -0.037,1.886 l 0.042,0.185 c -0.059,0.112 -0.078,0.111 -0.104,0.275 0.043,-0.082 0.046,0.027 0.058,0.082 -0.027,0.055 -0.061,0.108 -0.096,0.16 C 0.288,-0.353 -0.109,-0.062 0,0 M 9.454,-2.792 C 9.299,-4.729 8.753,-6.577 8.119,-8.226 7.69,-9.411 6.85,-10.951 5.751,-12.27 c -1.089,-1.329 -2.444,-2.387 -3.474,-2.942 -1.675,-0.96 -2.874,-1.841 -4.449,-2.707 l -0.455,-0.182 c -0.262,-0.198 -0.261,-0.221 -0.653,-0.448 0.196,0.148 -0.065,0.02 -0.194,-0.031 l -0.393,-0.298 c -0.194,0.016 -0.971,-0.796 -1.102,-0.732 l -0.201,-0.022 c -1.777,-0.946 -3.628,-2.063 -5.503,-3.218 -0.936,-0.579 -1.882,-1.164 -2.824,-1.746 -0.472,-0.288 -0.945,-0.576 -1.414,-0.863 -0.712,-0.424 -1.421,-0.846 -2.125,-1.265 -0.057,0.344 -0.112,0.681 -0.168,1.018 -0.144,1.097 -0.12,1.328 -0.146,1.814 -0.02,0.444 -0.047,0.892 -0.13,1.447 l -0.108,-0.028 c -0.161,0.761 0.063,0.185 -0.035,0.993 l -0.082,-0.32 -0.278,1.507 0.067,-0.238 c -0.094,0.526 -0.221,1.108 -0.29,1.092 0.046,0.098 0.115,-0.019 0.003,0.657 -0.162,-0.013 -0.34,0.974 -0.521,1.896 0.024,-0.017 -0.021,0.345 0.047,0.098 -0.543,1.975 -0.376,3.174 -0.919,5.087 l 0.024,-0.018 c -0.155,1.564 -0.428,2.159 -0.627,3.886 l -0.07,-0.081 c -0.113,0.807 -0.262,1.706 -0.476,2.588 l 0.048,-0.102 c -0.041,0.208 -0.087,0.413 -0.118,0.629 l 0.023,-0.018 c -0.066,0.258 -0.119,0.858 -0.196,1.389 l 0.021,-0.021 c 0.011,0.36 -0.024,0.778 -0.053,1.137 l 0.075,0.4 c -0.03,0.52 0.028,1.167 0.121,1.787 0.102,0.619 0.224,1.212 0.284,1.652 0.443,1.8 1.277,3.686 2.406,5.223 0.586,0.806 1.097,1.443 1.623,1.933 0.491,0.525 0.996,0.895 1.479,1.277 1.004,0.709 2.027,1.39 3.806,2.09 2.006,0.839 3.571,1.126 5.047,1.261 0.373,0.017 0.739,0.033 1.107,0.05 0.369,-0.025 0.741,-0.051 1.124,-0.078 0.385,-0.014 0.771,-0.109 1.177,-0.188 0.203,-0.043 0.41,-0.087 0.624,-0.133 0.211,-0.052 0.421,-0.134 0.64,-0.204 0,0 0.442,-0.136 0.952,-0.329 0.495,-0.232 1.057,-0.513 1.336,-0.701 0.26,-0.203 0.273,-0.29 -0.329,-0.16 -0.389,0.066 -1.023,0.282 -2.01,0.469 0.715,-0.203 1.423,-0.464 2.118,-0.787 0.144,-0.066 0.285,-0.139 0.426,-0.21 -0.204,0.162 -0.329,0.278 -0.365,0.343 -0.064,0.107 0.103,0.089 0.427,-0.032 0.163,-0.059 0.364,-0.142 0.596,-0.244 0.233,-0.1 0.499,-0.216 0.76,-0.387 C 3.513,10.132 4.765,9.053 5.669,8.083 6.082,7.565 6.482,7.133 6.704,6.777 6.934,6.427 7.073,6.216 7.073,6.216 7.683,5.282 8.146,4.264 8.543,3.226 8.563,3.236 8.694,2.956 8.71,2.836 9.396,1.135 9.623,-0.866 9.454,-2.792 m -29.998,4.304 c 0.002,0.006 0.003,0.01 0.004,0.015 0.003,0.024 0.007,0.05 0.01,0.074 z m 9.395,-1.593 c 0.002,0.01 0.002,0.017 0.002,0.027 l 0.002,0.005 z" />
      </g>
      <g
         transform="matrix(0.35277777,0,0,-0.35277777,108.88301,146.29913)"
         id="g4922">
        <path
           inkscape:connector-curvature="0"
           id="path4924"
           style="fill:#ffffff;fill-opacity:1;fill-rule:nonzero;stroke:none"
           d="m 0,0 c -0.296,-0.05 -3.008,5.123 -3.008,5.123 l 1.053,0.123 -0.654,3.365 c 0,0 -0.204,3.58 0.42,3.808 0.624,0.228 3.126,0.702 3.126,0.702 L -0.066,8.325 0.912,3.729 -0.275,1.893 Z" />
      </g>
      <g
         transform="matrix(0.35277777,0,0,-0.35277777,108.92495,146.31035)"
         id="g4926">
        <path
           inkscape:connector-curvature="0"
           id="path4928"
           style="fill:#ffffff;fill-opacity:1;fill-rule:nonzero;stroke:none"
           d="m 0,0 0.079,1.871 c 0,0 3.449,4.954 3.638,5.008 0.189,0.054 4.214,1.773 4.214,1.773 l 3.901,-2.539 3.52,-0.773 c 0,0 -1.876,-0.487 -1.939,-0.799 C 13.351,4.229 12.796,2.687 12.489,2.559 12.181,2.43 11.095,1.487 11.095,1.487 c 0,0 -1.166,-1.012 -1.448,-1.185 C 9.365,0.13 8.936,0.041 8.309,-0.131 7.681,-0.304 6.795,-0.381 6.071,-0.298 5.347,-0.214 4.531,-0.054 3.318,0.129 2.106,0.311 1.311,0.35 1.311,0.35 Z" />
      </g>
      <g
         transform="matrix(0.35277777,0,0,-0.35277777,96.38984,154.03773)"
         id="g4930">
        <path
           inkscape:connector-curvature="0"
           id="path4932"
           style="fill:#ffffff;fill-opacity:1;fill-rule:nonzero;stroke:none"
           d="m 0,0 -0.018,0.01 c -0.185,-0.29 -0.033,-0.446 -0.147,-0.787 l 0.082,0.011 c -0.021,-0.161 -0.021,-0.35 0.062,-0.519 l -0.031,0.018 0.023,-0.121 -0.02,10e-4 C -0.02,-1.434 -0.019,-1.551 0.05,-1.64 H 0.031 C 0.006,-1.716 0.05,-1.789 0.107,-1.842 L 0.066,-1.936 c 0.149,-0.155 0.167,-0.474 0.36,-0.56 0.185,-0.296 0.442,-0.57 0.697,-0.806 0.296,-0.218 0.465,-0.343 0.663,-0.489 0.186,-0.137 0.381,-0.275 0.733,-0.386 0.418,-0.063 0.72,0.008 0.985,0.059 0.267,0.072 0.505,0.109 0.851,0.14 0.003,-0.01 0.335,0.065 0.52,-0.003 0.1,-0.026 0.147,-0.107 0.077,-0.263 -0.048,-0.1 -0.155,-0.251 -0.359,-0.419 0.175,0.059 0.349,0.127 0.519,0.212 0.038,0.02 0.073,0.043 0.111,0.063 -0.087,0.016 -0.146,0.041 -0.177,0.067 -0.101,0.101 0.023,0.271 0.211,0.447 0.18,0.194 0.423,0.409 0.588,0.616 0.089,0.097 0.161,0.187 0.208,0.256 0.051,0.065 0.082,0.105 0.082,0.105 0.131,0.176 0.248,0.364 0.347,0.562 -0.014,0.007 -0.019,0.075 0.003,0.091 0.046,0.368 0.202,0.702 0.308,1.083 0.106,0.373 0.155,0.797 -0.028,1.128 C 6.59,0.473 6.042,1.127 5.829,1.547 5.572,1.846 5.237,1.914 4.96,2.141 L 4.906,2.251 C 4.829,2.249 4.819,2.232 4.739,2.277 4.795,2.28 4.752,2.327 4.735,2.36 L 4.619,2.345 C 4.625,2.461 4.321,2.262 4.345,2.375 L 4.334,2.465 C 3.948,2.688 3.446,2.726 2.977,2.639 2.502,2.554 2.065,2.353 1.654,2.154 1.419,2.123 1.213,2.176 0.998,2.049 L 1.068,1.964 C 0.964,1.829 0.983,2.012 0.824,1.923 L 0.961,1.866 C 0.885,1.788 0.806,1.715 0.742,1.627 L 0.758,1.685 C 0.683,1.598 0.618,1.487 0.672,1.441 0.615,1.467 0.589,1.525 0.5,1.41 0.628,1.301 0.497,1.144 0.425,0.965 0.411,0.98 0.357,0.926 0.363,0.984 0.333,0.541 -0.098,0.464 0,0 m 12.627,-1.78 c -0.21,-1.149 -0.201,-2.022 -0.425,-3.069 L 12.083,-5.12 c 0.006,-0.197 0.025,-0.207 -0.022,-0.47 -0.004,0.147 -0.054,-0.019 -0.088,-0.096 l 0.01,-0.295 c -0.126,-0.075 0.071,-0.757 -0.057,-0.784 L 11.828,-6.86 c -0.278,-1.162 -0.462,-2.429 -0.629,-3.723 -0.082,-0.647 -0.165,-1.302 -0.247,-1.952 -0.048,-0.35 -0.096,-0.7 -0.144,-1.047 -0.087,-0.561 -0.174,-1.118 -0.26,-1.672 -0.183,0.097 -0.363,0.193 -0.542,0.289 -0.255,0.156 -0.476,0.3 -0.672,0.434 -0.184,0.127 -0.4,0.273 -0.472,0.342 -0.206,0.17 -0.418,0.334 -0.708,0.498 l -0.046,-0.101 c -0.423,0.185 -0.048,0.129 -0.457,0.386 l 0.097,-0.201 -0.816,0.399 0.142,-0.043 c -0.283,0.143 -0.608,0.28 -0.639,0.216 -0.018,0.08 0.071,0.088 -0.287,0.278 -0.082,-0.139 -0.615,0.125 -1.118,0.362 0.02,0.012 -0.163,0.127 -0.018,0.08 -1.165,0.377 -1.603,1.017 -2.74,1.367 l 0.02,0.012 c -0.773,0.527 -1.183,0.549 -2.052,1.108 L 0.238,-9.92 c -0.418,0.245 -0.891,0.494 -1.401,0.692 l 0.072,-0.005 c -0.116,0.054 -0.231,0.108 -0.348,0.172 l 0.021,0.01 c -0.155,0.055 -0.458,0.262 -0.756,0.405 l 0.023,0.009 c -0.163,0.151 -0.383,0.281 -0.575,0.391 -0.05,0.07 -0.102,0.135 -0.149,0.207 -0.564,0.322 -1.127,1.099 -1.533,1.462 -0.703,0.893 -1.288,2.019 -1.579,3.155 -0.331,1.185 -0.309,1.975 -0.273,2.726 0.099,0.748 0.192,1.491 0.583,2.588 0.395,1.263 0.86,2.114 1.367,2.865 0.509,0.75 1.129,1.381 2.086,1.972 0,0 0.235,0.155 0.53,0.307 0.304,0.137 0.66,0.28 0.867,0.316 0.202,0.021 0.265,-0.037 0.001,-0.311 -0.17,-0.189 -0.511,-0.451 -0.973,-0.9 0.379,0.271 0.778,0.525 1.208,0.742 0.098,0.049 0.199,0.086 0.298,0.131 C -0.478,6.987 -0.6,6.979 -0.656,7.012 -0.83,7.076 -0.413,7.388 0.271,7.712 0.955,8.034 1.927,8.264 2.726,8.347 3.126,8.372 3.481,8.384 3.734,8.384 3.987,8.367 4.14,8.356 4.14,8.356 4.478,8.342 4.811,8.289 5.142,8.226 5.478,8.181 5.799,8.076 6.124,7.99 6.126,8.003 6.32,7.997 6.382,7.954 7.476,7.72 8.536,7.078 9.394,6.277 10.262,5.472 10.925,4.52 11.513,3.625 c 0.424,-0.636 0.866,-1.61 1.082,-2.635 0.226,-1.024 0.199,-2.077 0.032,-2.77 M -4.402,-6.585 c -0.003,0.003 -0.006,0.008 -0.006,0.008 l -0.035,0.03 z m 4.842,4.081 -0.014,0.008 -0.001,0.002 z" />
      </g>
      <g
         transform="matrix(0.35277777,0,0,-0.35277777,96.14346,151.35218)"
         id="g4934">
        <path
           inkscape:connector-curvature="0"
           id="path4936"
           style="fill:#ffffff;fill-opacity:1;fill-rule:nonzero;stroke:none"
           d="M 0,0 1.921,2.393 2.16,4.627 2.538,6.477 2.015,9.402 0.896,7.324 -0.382,5.691 -0.702,2.874 -2.263,4.628 c 0,0 -0.394,0.515 -0.613,0.642 -0.22,0.127 -2.374,-0.373 -2.374,-0.373 0,0 -2.224,0.317 -2.099,0.115 C -7.224,4.81 -6.264,3.05 -6.208,2.758 -6.151,2.466 -6.756,1.733 -5.983,1.466 -5.212,1.2 -4.368,0.772 -4.08,0.758 -3.792,0.743 -2.295,0.819 -2.295,0.819 L -4.068,0.136 c 0,0 -1.178,0.173 -1.39,-0.033 -0.213,-0.208 -1.704,-1.472 -1.704,-1.472 l -1.941,-0.935 c 0.321,-0.44 0.961,-0.78 1.323,-0.692 0.362,0.088 0.516,-0.166 1.206,0.1 0.689,0.265 3.13,1.268 3.495,1.346 0.366,0.078 1.182,0.82 1.182,0.82 l 0.101,0.989 z" />
      </g>
      <g
         transform="matrix(0.35277777,0,0,-0.35277777,84.45184,164.26084)"
         id="g4938">
        <path
           inkscape:connector-curvature="0"
           id="path4940"
           style="fill:#ffffff;fill-opacity:1;fill-rule:nonzero;stroke:none"
           d="M 0,0 C 0.102,-0.549 0.194,-1.072 0.275,-1.57 0.356,-2.068 0.422,-2.583 0.473,-3.11 0.524,-3.64 0.545,-4.204 0.533,-4.803 0.524,-5.404 0.489,-6.08 0.427,-6.832 c 0.508,0.143 1.113,0.295 1.816,0.458 0.701,0.162 1.356,0.405 1.967,0.732 0.609,0.325 1.098,0.752 1.464,1.281 0.365,0.528 0.457,1.23 0.275,2.105 -0.143,0.629 -0.407,1.143 -0.793,1.54 C 4.768,-0.32 4.306,-0.03 3.768,0.153 3.228,0.336 2.644,0.417 2.014,0.397 1.382,0.376 0.752,0.285 0.123,0.123 c 0.06,0 0.08,-0.011 0.06,-0.031 z m -1.067,9.364 c 0.081,-0.589 0.158,-1.14 0.23,-1.647 0.07,-0.509 0.141,-1.011 0.212,-1.51 C -0.554,5.709 -0.478,5.201 -0.396,4.683 -0.315,4.164 -0.224,3.599 -0.122,2.99 0.245,3.071 0.712,3.203 1.283,3.385 1.851,3.57 2.39,3.818 2.898,4.133 3.406,4.448 3.808,4.839 4.103,5.307 4.397,5.775 4.443,6.335 4.239,6.985 4.016,7.676 3.726,8.205 3.371,8.571 3.015,8.937 2.609,9.197 2.151,9.35 1.693,9.502 1.19,9.563 0.64,9.532 0.092,9.502 -0.478,9.445 -1.067,9.364 m -3.599,2.532 c 0.346,0.162 0.819,0.299 1.418,0.412 0.599,0.112 1.271,0.177 2.013,0.197 0.742,0.022 1.514,0.005 2.318,-0.045 0.804,-0.051 1.571,-0.158 2.302,-0.319 0.733,-0.164 1.404,-0.388 2.014,-0.672 0.61,-0.285 1.098,-0.63 1.464,-1.037 C 7.494,9.68 7.926,8.928 8.159,8.175 8.393,7.422 8.469,6.685 8.388,5.964 8.307,5.242 8.083,4.545 7.717,3.874 7.351,3.203 6.894,2.563 6.345,1.952 6.854,1.465 7.341,1.011 7.809,0.595 8.277,0.177 8.663,-0.294 8.969,-0.823 9.273,-1.353 9.487,-1.977 9.609,-2.7 9.731,-3.421 9.701,-4.341 9.517,-5.46 9.395,-6.192 9.07,-6.791 8.542,-7.259 8.011,-7.727 7.361,-8.113 6.589,-8.418 5.816,-8.722 4.971,-8.967 4.057,-9.15 3.143,-9.333 2.258,-9.496 1.404,-9.638 0.55,-9.779 -0.238,-9.922 -0.96,-10.065 c -0.723,-0.141 -1.276,-0.326 -1.663,-0.549 -0.346,-0.061 -0.645,-0.026 -0.899,0.106 -0.255,0.134 -0.438,0.306 -0.55,0.52 -0.112,0.213 -0.152,0.452 -0.121,0.716 0.03,0.264 0.157,0.507 0.381,0.732 0.101,0.345 0.234,0.625 0.397,0.839 0.162,0.213 0.264,0.493 0.305,0.839 0.06,0.284 0.095,0.595 0.106,0.93 0.01,0.336 0.004,0.778 -0.016,1.326 -0.019,0.55 -0.07,1.246 -0.153,2.091 -0.08,0.842 -0.187,1.915 -0.319,3.218 -0.132,1.3 -0.294,2.86 -0.488,4.681 -0.194,1.82 -0.422,3.99 -0.686,6.512" />
      </g>
      <g
         transform="matrix(0.35277777,0,0,-0.35277777,91.42488,167.44558)"
         id="g4942">
        <path
           inkscape:connector-curvature="0"
           id="path4944"
           style="fill:#ffffff;fill-opacity:1;fill-rule:nonzero;stroke:none"
           d="M 0,0 C 0.019,-0.041 0.024,-0.041 0.014,0 0.005,0.04 -0.021,0.081 -0.061,0.122 -0.041,0.102 -0.032,0.081 -0.032,0.061 -0.032,0.04 -0.021,0.02 0,0 m -1.465,3.355 c 0.245,0.346 0.407,0.65 0.488,0.914 0.082,0.265 0.133,0.514 0.153,0.748 0.019,0.234 0.035,0.452 0.045,0.656 0.011,0.202 0.046,0.426 0.107,0.672 -0.63,0.1 -1.311,0.167 -2.042,0.197 C -3.447,6.573 -4.118,6.486 -4.728,6.282 -5.338,6.078 -5.841,5.719 -6.238,5.2 -6.634,4.682 -6.822,3.934 -6.803,2.959 l 0.855,-0.64 c 0.61,-0.144 1.281,-0.119 2.014,0.075 0.731,0.192 1.555,0.514 2.469,0.961 m -2.227,5.063 c 1.241,0.122 2.07,0.325 2.487,0.609 0.416,0.286 0.553,0.58 0.412,0.885 -0.143,0.306 -0.494,0.59 -1.053,0.855 -0.559,0.264 -1.195,0.436 -1.906,0.519 -0.713,0.08 -1.424,0.029 -2.134,-0.153 -0.713,-0.183 -1.293,-0.56 -1.74,-1.128 -0.346,-0.042 -0.645,0.01 -0.9,0.152 -0.254,0.142 -0.427,0.335 -0.518,0.58 -0.092,0.243 -0.102,0.503 -0.031,0.777 0.072,0.274 0.259,0.523 0.565,0.747 0.305,0.102 0.518,0.233 0.64,0.397 0.123,0.163 0.325,0.325 0.611,0.488 1.301,0.691 2.464,1.072 3.492,1.144 1.026,0.071 1.916,-0.072 2.669,-0.427 0.752,-0.356 1.372,-0.875 1.86,-1.557 C 1.25,11.625 1.611,10.868 1.845,10.034 2.079,9.2 2.19,8.351 2.181,7.488 2.17,6.624 2.033,5.825 1.768,5.093 1.666,4.808 1.621,4.545 1.632,4.301 1.642,4.056 1.672,3.786 1.723,3.493 1.773,3.197 1.829,2.855 1.891,2.469 1.952,2.084 2.002,1.626 2.042,1.097 2.125,0.955 2.165,0.823 2.165,0.701 2.246,0.478 2.277,0.233 2.256,-0.031 c 0,-0.02 -0.01,-0.03 -0.03,-0.03 C 2.105,-0.366 1.936,-0.595 1.723,-0.747 1.509,-0.9 1.286,-0.971 1.052,-0.96 0.818,-0.951 0.595,-0.87 0.381,-0.717 0.168,-0.565 0,-0.346 -0.122,-0.061 -0.162,0.081 -0.184,0.182 -0.184,0.243 V 0.366 C -0.326,0.529 -0.408,0.68 -0.427,0.823 -0.509,0.884 -0.58,0.95 -0.641,1.021 -0.702,1.092 -0.764,1.169 -0.824,1.25 -0.885,1.332 -0.987,1.366 -1.128,1.357 -1.271,1.346 -1.363,1.392 -1.404,1.494 -1.506,1.453 -1.597,1.407 -1.678,1.357 -1.76,1.306 -1.841,1.26 -1.922,1.22 -2.532,0.833 -3.106,0.493 -3.645,0.199 c -0.539,-0.296 -1.073,-0.484 -1.602,-0.565 -0.528,-0.081 -1.063,-0.026 -1.6,0.167 -0.541,0.194 -1.114,0.595 -1.725,1.205 -0.182,0.183 -0.34,0.427 -0.472,0.732 -0.133,0.304 -0.234,0.634 -0.306,0.991 -0.07,0.356 -0.106,0.706 -0.106,1.053 0,0.346 0.051,0.66 0.152,0.945 0.081,0.224 0.158,0.407 0.229,0.549 0.072,0.142 0.178,0.295 0.321,0.458 0.202,0.244 0.386,0.458 0.549,0.64 0.041,0.041 0.085,0.087 0.136,0.138 0.051,0.049 0.066,0.056 0.046,0.015 0.102,0.162 0.24,0.361 0.412,0.594 0.172,0.234 0.33,0.402 0.474,0.504 0.385,0.306 0.863,0.483 1.433,0.534 0.569,0.051 1.087,0.116 1.556,0.199 z" />
      </g>
      <g
         transform="matrix(0.35277777,0,0,-0.35277777,95.77206,162.75431)"
         id="g4946">
        <path
           inkscape:connector-curvature="0"
           id="path4948"
           style="fill:#ffffff;fill-opacity:1;fill-rule:nonzero;stroke:none"
           d="m 0,0 c 0.711,-0.448 1.067,-0.824 1.067,-1.128 0,-0.305 -0.208,-0.58 -0.625,-0.824 -0.417,-0.244 -0.956,-0.478 -1.616,-0.701 -0.662,-0.225 -1.297,-0.488 -1.906,-0.794 -0.611,-0.305 -1.11,-0.671 -1.496,-1.098 -0.386,-0.426 -0.519,-0.965 -0.395,-1.616 -0.022,-0.103 -0.037,-0.193 -0.046,-0.275 -0.012,-0.081 -0.016,-0.141 -0.016,-0.182 -0.062,-0.997 -0.143,-1.999 -0.244,-3.005 -0.102,-1.007 -0.163,-2.079 -0.183,-3.219 -0.021,-0.406 -0.173,-0.711 -0.458,-0.914 -0.285,-0.202 -0.605,-0.309 -0.96,-0.32 -0.356,-0.01 -0.698,0.061 -1.023,0.214 -0.325,0.152 -0.539,0.4 -0.641,0.746 -0.08,0.184 -0.121,0.325 -0.121,0.427 0,0.102 0.02,0.23 0.061,0.381 0.041,0.153 0.092,0.366 0.153,0.641 0.061,0.275 0.111,0.671 0.153,1.19 0.04,0.519 0.06,1.205 0.06,2.059 0,0.854 -0.03,1.931 -0.092,3.233 0.082,0.975 0.112,1.916 0.092,2.821 -0.02,0.905 -0.03,1.835 -0.03,2.791 0,0.284 0.096,0.529 0.29,0.733 0.193,0.202 0.432,0.344 0.717,0.427 0.284,0.08 0.589,0.085 0.914,0.014 0.325,-0.07 0.62,-0.233 0.885,-0.487 0.263,-0.254 0.467,-0.621 0.61,-1.099 0.143,-0.478 0.172,-1.082 0.092,-1.814 0.061,0.019 0.162,0.08 0.305,0.182 0.142,0.102 0.289,0.204 0.442,0.306 0.153,0.101 0.299,0.198 0.442,0.29 0.142,0.09 0.244,0.146 0.305,0.167 0.468,0.346 1.006,0.569 1.617,0.671 C -1.037,-0.082 -0.489,-0.021 0,0" />
      </g>
      <g
         transform="matrix(0.35277777,0,0,-0.35277777,99.59116,164.46528)"
         id="g4950">
        <path
           inkscape:connector-curvature="0"
           id="path4952"
           style="fill:#ffffff;fill-opacity:1;fill-rule:nonzero;stroke:none"
           d="M 0,0 C 0.022,0.224 0.027,0.493 0.016,0.809 0.005,1.123 0.01,1.455 0.032,1.799 -0.051,1.86 -0.141,1.972 -0.243,2.136 -1.036,2.888 -1.783,3.218 -2.486,3.126 -3.187,3.036 -3.803,2.7 -4.33,2.12 -4.86,1.54 -5.281,0.809 -5.596,-0.076 -5.911,-0.96 -6.074,-1.819 -6.085,-2.654 c -0.01,-0.833 0.153,-1.555 0.489,-2.165 0.335,-0.609 0.889,-0.915 1.662,-0.915 0.325,0 0.641,0.065 0.946,0.199 0.305,0.131 0.594,0.294 0.869,0.488 0.275,0.193 0.523,0.39 0.746,0.594 0.225,0.203 0.418,0.366 0.58,0.488 0.204,0.285 0.468,0.559 0.793,0.824 -0.041,1.118 -0.041,2.165 0,3.141 m 3.264,-1.647 c 0.041,-1.078 0.081,-2.297 0.121,-3.66 0.042,-1.363 0.073,-2.745 0.093,-4.147 0.02,-1.405 0.02,-2.751 0,-4.043 -0.02,-1.291 -0.072,-2.394 -0.153,-3.309 0,-0.04 -0.015,-0.08 -0.046,-0.121 -0.03,-0.041 -0.066,-0.083 -0.106,-0.123 -0.183,-0.224 -0.346,-0.33 -0.488,-0.321 -0.143,0.012 -0.357,-0.025 -0.641,-0.106 -0.041,0 -0.075,0.016 -0.106,0.046 -0.032,0.031 -0.056,0.035 -0.076,0.014 -0.082,-0.039 -0.143,-0.095 -0.184,-0.167 -0.04,-0.071 -0.102,-0.107 -0.182,-0.107 v -0.03 c -0.062,0.02 -0.128,0.035 -0.199,0.046 -0.072,0.01 -0.137,0.025 -0.198,0.045 -0.02,0.021 -0.03,0.036 -0.03,0.046 0,0.011 -0.011,0.026 -0.031,0.046 -0.305,0.142 -0.488,0.387 -0.549,0.732 -0.224,1.363 -0.326,2.796 -0.305,4.301 0.02,1.505 0.02,2.939 0,4.3 v 0.87 c 0,0.294 -0.011,0.595 -0.031,0.9 -0.284,-0.427 -0.686,-0.85 -1.204,-1.266 -0.519,-0.417 -1.042,-0.676 -1.571,-0.778 -0.713,-0.143 -1.317,-0.183 -1.815,-0.121 -0.499,0.06 -0.93,0.198 -1.297,0.411 -0.365,0.214 -0.691,0.488 -0.975,0.823 -0.286,0.336 -0.569,0.717 -0.854,1.144 -0.55,0.813 -0.906,1.688 -1.069,2.623 -0.162,0.935 -0.177,1.86 -0.044,2.776 0.131,0.915 0.406,1.774 0.822,2.577 0.418,0.803 0.947,1.484 1.587,2.044 0.64,0.558 1.372,0.96 2.197,1.205 0.823,0.243 1.722,0.253 2.697,0.03 0.286,-0.062 0.57,-0.204 0.856,-0.427 C -0.233,4.382 0.022,4.179 0.245,3.996 0.347,4.504 0.478,4.88 0.642,5.124 0.764,5.328 0.946,5.481 1.191,5.582 1.434,5.684 1.688,5.729 1.952,5.719 2.217,5.709 2.466,5.644 2.7,5.522 2.934,5.398 3.092,5.217 3.173,4.971 3.335,4.504 3.427,3.985 3.447,3.417 3.468,2.847 3.463,2.268 3.432,1.678 3.402,1.088 3.366,0.504 3.325,-0.076 3.284,-0.655 3.264,-1.179 3.264,-1.647" />
      </g>
      <g
         transform="matrix(0.35277777,0,0,-0.35277777,101.47439,162.49583)"
         id="g4954">
        <path
           inkscape:connector-curvature="0"
           id="path4956"
           style="fill:#ffffff;fill-opacity:1;fill-rule:nonzero;stroke:none"
           d="M 0,0 C 0.061,0.263 0.183,0.483 0.366,0.655 0.55,0.828 0.752,0.946 0.977,1.006 1.2,1.067 1.433,1.077 1.678,1.036 1.923,0.995 2.125,0.905 2.288,0.762 2.573,0.213 2.786,-0.463 2.929,-1.266 3.071,-2.07 3.177,-2.924 3.249,-3.829 3.32,-4.734 3.376,-5.649 3.417,-6.573 3.456,-7.499 3.507,-8.338 3.57,-9.09 c 0.019,-0.305 0.045,-0.544 0.075,-0.716 0.031,-0.174 0.071,-0.322 0.122,-0.443 0.051,-0.122 0.122,-0.255 0.213,-0.396 0.092,-0.143 0.208,-0.346 0.351,-0.611 0.305,-0.528 0.66,-0.767 1.067,-0.716 0.408,0.049 0.825,0.233 1.252,0.548 0.427,0.316 0.849,0.687 1.265,1.114 0.416,0.427 0.778,0.752 1.083,0.976 0.041,1.993 0.077,3.778 0.106,5.354 0.032,1.575 0.144,2.81 0.337,3.706 0.193,0.893 0.518,1.382 0.975,1.463 0.458,0.08 1.124,-0.376 1.999,-1.373 -0.062,-0.895 -0.158,-1.824 -0.291,-2.79 -0.132,-0.967 -0.249,-1.947 -0.35,-2.944 -0.103,-0.996 -0.158,-1.993 -0.169,-2.988 -0.009,-0.997 0.077,-1.953 0.26,-2.869 0.02,0.305 0.046,0.393 0.077,0.26 0.03,-0.132 0.055,-0.34 0.076,-0.626 0.019,-0.284 0.03,-0.589 0.03,-0.915 0,-0.325 -0.03,-0.548 -0.092,-0.669 -0.142,-0.388 -0.34,-0.652 -0.594,-0.794 -0.254,-0.142 -0.523,-0.183 -0.807,-0.122 -0.347,-0.203 -0.718,-0.157 -1.114,0.138 -0.397,0.293 -0.616,0.757 -0.657,1.387 -0.019,0.162 -0.03,0.325 -0.03,0.487 v 0.488 c -0.387,-0.468 -0.809,-0.909 -1.265,-1.326 -0.458,-0.418 -0.951,-0.748 -1.48,-0.991 -0.264,-0.122 -0.591,-0.213 -0.976,-0.274 -0.387,-0.062 -0.722,-0.041 -1.007,0.061 -0.853,0.284 -1.54,0.752 -2.059,1.402 -0.517,0.651 -0.915,1.408 -1.189,2.273 -0.274,0.863 -0.453,1.804 -0.533,2.821 -0.083,1.016 -0.128,2.018 -0.139,3.004 -0.009,0.987 -0.009,1.932 0,2.838 C 0.117,-1.43 0.082,-0.652 0,0" />
      </g>
      <g
         transform="matrix(0.35277777,0,0,-0.35277777,108.84477,163.12024)"
         id="g4958">
        <path
           inkscape:connector-curvature="0"
           id="path4960"
           style="fill:#ffffff;fill-opacity:1;fill-rule:nonzero;stroke:none"
           d="m 0,0 c -0.57,-0.081 -1.011,-0.168 -1.327,-0.259 -0.314,-0.091 -0.574,-0.234 -0.778,-0.427 -0.203,-0.194 -0.381,-0.447 -0.533,-0.762 -0.153,-0.315 -0.35,-0.738 -0.595,-1.267 1.038,0.02 2.094,0 3.172,-0.06 C 1.017,-2.836 2.064,-2.847 3.08,-2.806 3.02,-2.237 2.893,-1.783 2.7,-1.448 2.506,-1.113 2.268,-0.849 1.984,-0.655 1.698,-0.463 1.388,-0.32 1.053,-0.228 0.718,-0.136 0.366,-0.061 0,0 m 2.379,-5.337 c -0.385,0 -0.843,0.01 -1.372,0.03 -0.529,0.02 -1.073,0.031 -1.632,0.031 h -1.631 c -0.53,0 -0.987,-0.011 -1.372,-0.031 -0.063,-0.446 -0.037,-0.895 0.075,-1.342 0.111,-0.448 0.301,-0.874 0.565,-1.28 0.263,-0.408 0.599,-0.773 1.006,-1.098 0.406,-0.326 0.884,-0.58 1.433,-0.764 0.203,-0.081 0.457,-0.151 0.763,-0.214 0.305,-0.06 0.616,-0.102 0.93,-0.121 0.316,-0.02 0.605,-0.01 0.87,0.031 0.263,0.039 0.467,0.111 0.61,0.214 0.182,0.121 0.376,0.223 0.579,0.303 0.203,0.082 0.367,0.184 0.488,0.306 0.042,0.041 0.061,0.087 0.061,0.138 0,0.051 0.01,0.107 0.032,0.167 l 0.028,-0.031 c 0.122,0.224 0.291,0.361 0.505,0.412 0.213,0.051 0.406,0.046 0.579,-0.014 0.173,-0.062 0.3,-0.179 0.381,-0.352 0.081,-0.172 0.071,-0.381 -0.03,-0.626 -0.407,-0.894 -0.966,-1.591 -1.677,-2.089 -0.713,-0.498 -1.496,-0.807 -2.35,-0.93 -0.854,-0.122 -1.734,-0.076 -2.638,0.138 -0.905,0.213 -1.754,0.58 -2.547,1.098 -0.793,0.519 -1.489,1.174 -2.089,1.967 -0.6,0.794 -1.006,1.698 -1.22,2.714 -0.213,1.017 -0.204,2.14 0.03,3.371 0.235,1.23 0.788,2.547 1.663,3.949 0.345,0.55 0.869,0.997 1.57,1.344 0.703,0.344 1.475,0.573 2.319,0.686 C -0.849,2.781 0.02,2.76 0.915,2.609 1.81,2.456 2.629,2.171 3.371,1.754 4.114,1.336 4.718,0.768 5.186,0.046 5.653,-0.676 5.897,-1.555 5.918,-2.593 5.918,-3.304 5.907,-3.848 5.887,-4.224 5.867,-4.601 5.75,-4.875 5.537,-5.047 5.323,-5.22 4.972,-5.317 4.485,-5.337 c -0.488,-0.021 -1.191,-0.021 -2.106,0" />
      </g>
      <g
         transform="matrix(0.35277777,0,0,-0.35277777,112.01917,160.22577)"
         id="g4962">
        <path
           inkscape:connector-curvature="0"
           id="path4964"
           style="fill:#ffffff;fill-opacity:1;fill-rule:nonzero;stroke:none"
           d="M 0,0 C 0.062,0.123 0.189,0.347 0.382,0.672 0.575,0.997 0.819,1.317 1.113,1.632 1.408,1.947 1.729,2.207 2.075,2.41 2.42,2.613 2.765,2.654 3.111,2.532 3.579,2.246 3.884,1.892 4.026,1.464 4.169,1.038 4.22,0.59 4.179,0.123 4.179,-0.243 4.143,-0.63 4.072,-1.036 4.001,-1.443 3.914,-1.829 3.812,-2.195 L 7.29,-2.959 7.473,-3.141 c 0.101,0 0.203,-0.006 0.305,-0.015 0.102,-0.011 0.213,-0.017 0.336,-0.017 0.04,-0.019 0.086,-0.04 0.137,-0.06 0.051,-0.02 0.096,-0.041 0.137,-0.061 l 0.153,-0.153 c 0.02,-0.019 0.05,-0.07 0.091,-0.152 0.019,-0.02 0.031,-0.051 0.031,-0.091 0.02,-0.062 0.031,-0.133 0.031,-0.214 0,-0.122 -0.052,-0.255 -0.153,-0.397 0,-0.019 -0.021,-0.05 -0.062,-0.091 L 8.418,-4.453 C 8.317,-4.514 8.195,-4.565 8.052,-4.606 L 3.57,-5.002 H 3.538 c -0.04,0 -0.065,-0.005 -0.075,-0.014 C 3.452,-5.028 3.436,-5.033 3.417,-5.033 3.396,-5.195 3.385,-5.343 3.385,-5.474 V -5.916 C 3.406,-6.405 3.406,-7 3.385,-7.701 3.366,-8.402 3.356,-9.155 3.356,-9.958 c 0,-0.804 0.015,-1.623 0.046,-2.455 0.03,-0.835 0.117,-1.632 0.258,-2.394 0.143,-0.764 0.351,-1.465 0.625,-2.105 0.275,-0.641 0.646,-1.165 1.113,-1.572 0.184,-0.162 0.362,-0.243 0.534,-0.243 0.172,0 0.342,0.03 0.504,0.091 0.163,0.06 0.33,0.132 0.503,0.213 0.173,0.082 0.351,0.133 0.534,0.152 h 0.336 c 0.04,0.062 0.085,0.148 0.136,0.26 0.051,0.112 0.088,0.199 0.107,0.26 0.204,0.345 0.468,0.497 0.793,0.458 0.325,-0.041 0.539,-0.254 0.64,-0.641 0,-0.55 -0.107,-1.023 -0.319,-1.419 -0.214,-0.397 -0.498,-0.716 -0.854,-0.96 -0.356,-0.245 -0.757,-0.427 -1.204,-0.55 -0.448,-0.121 -0.916,-0.182 -1.404,-0.182 -0.286,-0.122 -0.61,-0.143 -0.975,-0.061 -0.367,0.081 -0.733,0.223 -1.099,0.427 -0.407,0.163 -0.768,0.36 -1.083,0.594 -0.316,0.234 -0.554,0.503 -0.717,0.808 -0.224,0.224 -0.417,0.437 -0.579,0.641 -0.163,0.203 -0.286,0.376 -0.367,0.518 -0.223,0.387 -0.365,0.767 -0.426,1.145 -0.061,0.376 -0.102,0.777 -0.122,1.203 l -0.427,3.631 c -0.04,1.28 -0.082,2.567 -0.123,3.858 -0.04,1.291 -0.05,2.588 -0.029,3.889 l -2.867,0.031 c -0.386,0.06 -0.621,0.254 -0.702,0.579 -0.021,0.081 -0.03,0.193 -0.03,0.335 0.04,0.143 0.111,0.265 0.213,0.367 0.041,0.041 0.102,0.08 0.182,0.121 0.021,0.022 0.041,0.032 0.062,0.032 0.02,0 0.04,0.009 0.061,0.031 0.061,0.02 0.151,0.029 0.274,0.029 0.163,0 0.412,0.01 0.748,0.031 0.334,0.02 0.584,0.05 0.747,0.09 0.223,0.063 0.396,0.139 0.519,0.231 0.122,0.09 0.228,0.187 0.32,0.289 0.091,0.102 0.178,0.203 0.259,0.305 0.081,0.102 0.183,0.183 0.304,0.244 0.022,0.285 0.041,0.564 0.062,0.838 0.02,0.276 0.05,0.555 0.091,0.839" />
      </g>
      <g
         transform="matrix(0.35277777,0,0,-0.35277777,116.72138,160.22577)"
         id="g4966">
        <path
           inkscape:connector-curvature="0"
           id="path4968"
           style="fill:#ffffff;fill-opacity:1;fill-rule:nonzero;stroke:none"
           d="M 0,0 C 0.062,0.123 0.189,0.347 0.383,0.672 0.575,0.997 0.819,1.317 1.114,1.632 1.409,1.947 1.729,2.207 2.075,2.41 2.42,2.613 2.765,2.654 3.111,2.532 3.58,2.246 3.885,1.892 4.026,1.464 4.169,1.038 4.22,0.59 4.179,0.123 4.179,-0.243 4.143,-0.63 4.072,-1.036 4.002,-1.443 3.915,-1.829 3.813,-2.195 l 3.478,-0.764 0.182,-0.182 c 0.102,0 0.204,-0.006 0.305,-0.015 0.102,-0.011 0.214,-0.017 0.337,-0.017 0.039,-0.019 0.085,-0.04 0.136,-0.06 0.051,-0.02 0.097,-0.041 0.138,-0.061 l 0.153,-0.153 c 0.019,-0.019 0.049,-0.07 0.09,-0.152 0.02,-0.02 0.031,-0.051 0.031,-0.091 0.02,-0.062 0.031,-0.133 0.031,-0.214 0,-0.122 -0.052,-0.255 -0.152,-0.397 0,-0.019 -0.021,-0.05 -0.062,-0.091 L 8.419,-4.453 C 8.317,-4.514 8.196,-4.565 8.053,-4.606 L 3.57,-5.002 H 3.538 c -0.04,0 -0.065,-0.005 -0.075,-0.014 C 3.452,-5.028 3.436,-5.033 3.417,-5.033 3.396,-5.195 3.385,-5.343 3.385,-5.474 V -5.916 C 3.406,-6.405 3.406,-7 3.385,-7.701 3.366,-8.402 3.357,-9.155 3.357,-9.958 c 0,-0.804 0.014,-1.623 0.045,-2.455 0.03,-0.835 0.117,-1.632 0.258,-2.394 0.143,-0.764 0.352,-1.465 0.626,-2.105 0.274,-0.641 0.645,-1.165 1.113,-1.572 0.183,-0.162 0.361,-0.243 0.534,-0.243 0.172,0 0.341,0.03 0.503,0.091 0.163,0.06 0.33,0.132 0.503,0.213 0.173,0.082 0.352,0.133 0.534,0.152 h 0.336 c 0.04,0.062 0.086,0.148 0.137,0.26 0.051,0.112 0.087,0.199 0.107,0.26 0.203,0.345 0.468,0.497 0.793,0.458 0.325,-0.041 0.538,-0.254 0.64,-0.641 0,-0.55 -0.107,-1.023 -0.32,-1.419 -0.213,-0.397 -0.498,-0.716 -0.854,-0.96 -0.356,-0.245 -0.757,-0.427 -1.204,-0.55 -0.448,-0.121 -0.916,-0.182 -1.404,-0.182 -0.285,-0.122 -0.609,-0.143 -0.975,-0.061 -0.366,0.081 -0.732,0.223 -1.098,0.427 -0.408,0.163 -0.769,0.36 -1.084,0.594 -0.315,0.234 -0.553,0.503 -0.716,0.808 -0.225,0.224 -0.417,0.437 -0.58,0.641 -0.162,0.203 -0.285,0.376 -0.366,0.518 -0.223,0.387 -0.366,0.767 -0.426,1.145 -0.061,0.376 -0.102,0.777 -0.122,1.203 l -0.427,3.631 c -0.041,1.28 -0.082,2.567 -0.123,3.858 -0.041,1.291 -0.051,2.588 -0.03,3.889 l -2.867,0.031 c -0.386,0.06 -0.62,0.254 -0.702,0.579 -0.02,0.081 -0.03,0.193 -0.03,0.335 0.041,0.143 0.112,0.265 0.214,0.367 0.04,0.041 0.101,0.08 0.182,0.121 0.021,0.022 0.041,0.032 0.061,0.032 0.021,0 0.041,0.009 0.062,0.031 0.06,0.02 0.151,0.029 0.274,0.029 0.162,0 0.412,0.01 0.747,0.031 0.335,0.02 0.585,0.05 0.747,0.09 0.223,0.063 0.396,0.139 0.519,0.231 0.122,0.09 0.228,0.187 0.32,0.289 0.092,0.102 0.178,0.203 0.26,0.305 0.08,0.102 0.182,0.183 0.303,0.244 0.022,0.285 0.041,0.564 0.063,0.838 C -0.07,-0.563 -0.041,-0.284 0,0" />
      </g>
      <g
         transform="matrix(0.35277777,0,0,-0.35277777,123.38228,163.12024)"
         id="g4970">
        <path
           inkscape:connector-curvature="0"
           id="path4972"
           style="fill:#ffffff;fill-opacity:1;fill-rule:nonzero;stroke:none"
           d="m 0,0 c -0.57,-0.081 -1.012,-0.168 -1.327,-0.259 -0.315,-0.091 -0.574,-0.234 -0.778,-0.427 -0.204,-0.194 -0.381,-0.447 -0.534,-0.762 -0.153,-0.315 -0.35,-0.738 -0.594,-1.267 1.037,0.02 2.093,0 3.172,-0.06 C 1.016,-2.836 2.064,-2.847 3.08,-2.806 3.019,-2.237 2.893,-1.783 2.699,-1.448 2.506,-1.113 2.267,-0.849 1.983,-0.655 1.698,-0.463 1.387,-0.32 1.052,-0.228 0.717,-0.136 0.366,-0.061 0,0 m 2.379,-5.337 c -0.386,0 -0.844,0.01 -1.373,0.03 -0.528,0.02 -1.072,0.031 -1.632,0.031 h -1.63 c -0.53,0 -0.987,-0.011 -1.373,-0.031 -0.062,-0.446 -0.036,-0.895 0.076,-1.342 0.111,-0.448 0.3,-0.874 0.564,-1.28 0.264,-0.408 0.6,-0.773 1.007,-1.098 0.406,-0.326 0.883,-0.58 1.433,-0.764 0.202,-0.081 0.457,-0.151 0.762,-0.214 0.306,-0.06 0.616,-0.102 0.931,-0.121 0.315,-0.02 0.604,-0.01 0.869,0.031 0.264,0.039 0.468,0.111 0.61,0.214 0.183,0.121 0.377,0.223 0.58,0.303 0.203,0.082 0.367,0.184 0.488,0.306 0.041,0.041 0.061,0.087 0.061,0.138 0,0.051 0.01,0.107 0.031,0.167 l 0.029,-0.031 c 0.122,0.224 0.291,0.361 0.504,0.412 0.214,0.051 0.406,0.046 0.58,-0.014 0.172,-0.062 0.299,-0.179 0.381,-0.352 0.081,-0.172 0.07,-0.381 -0.031,-0.626 -0.407,-0.894 -0.965,-1.591 -1.676,-2.089 -0.713,-0.498 -1.496,-0.807 -2.35,-0.93 -0.854,-0.122 -1.734,-0.076 -2.639,0.138 -0.905,0.213 -1.754,0.58 -2.546,1.098 -0.794,0.519 -1.49,1.174 -2.089,1.967 -0.601,0.794 -1.007,1.698 -1.22,2.714 -0.214,1.017 -0.204,2.14 0.03,3.371 0.234,1.23 0.788,2.547 1.663,3.949 0.344,0.55 0.868,0.997 1.57,1.344 0.702,0.344 1.474,0.573 2.318,0.686 C -0.849,2.781 0.02,2.76 0.914,2.609 1.809,2.456 2.628,2.171 3.371,1.754 4.113,1.336 4.717,0.768 5.185,0.046 5.653,-0.676 5.896,-1.555 5.917,-2.593 5.917,-3.304 5.906,-3.848 5.887,-4.224 5.866,-4.601 5.749,-4.875 5.536,-5.047 5.323,-5.22 4.971,-5.317 4.484,-5.337 c -0.488,-0.021 -1.19,-0.021 -2.105,0" />
      </g>
      <g
         transform="matrix(0.35277777,0,0,-0.35277777,113.94921,174.94158)"
         id="g4974">
        <path
           inkscape:connector-curvature="0"
           id="path4976"
           style="fill:#ffffff;fill-opacity:1;fill-rule:nonzero;stroke:none"
           d="m 0,0 c -1.505,1.443 -2.558,3.008 -3.157,4.695 -0.599,1.687 -0.838,3.349 -0.715,4.986 0.121,1.636 0.567,3.171 1.34,4.604 0.773,1.433 1.774,2.623 3.005,3.568 1.229,0.946 2.641,1.575 4.238,1.89 1.596,0.315 3.288,0.169 5.077,-0.441 0.447,-0.163 0.828,-0.427 1.143,-0.793 0.315,-0.366 0.523,-0.762 0.625,-1.189 0.102,-0.427 0.081,-0.854 -0.06,-1.281 -0.143,-0.428 -0.448,-0.773 -0.915,-1.037 -0.59,-0.121 -1.057,-0.021 -1.403,0.305 -0.346,0.325 -0.487,0.701 -0.427,1.128 -0.041,0.02 -0.092,0.041 -0.152,0.061 -0.061,0.02 -0.112,0.051 -0.153,0.092 -0.468,0.325 -0.98,0.523 -1.54,0.594 C 6.346,17.253 5.778,17.233 5.199,17.121 4.619,17.01 4.065,16.821 3.537,16.557 3.008,16.292 2.551,16.008 2.165,15.703 1.534,15.215 1.011,14.605 0.595,13.874 0.177,13.142 -0.128,12.349 -0.32,11.496 -0.514,10.642 -0.594,9.762 -0.565,8.858 -0.533,7.953 -0.387,7.093 -0.122,6.281 0.142,5.468 0.512,4.731 0.992,4.069 1.468,3.409 2.068,2.896 2.79,2.53 3.511,2.164 4.345,1.981 5.291,1.981 c 0.945,0 2.007,0.245 3.186,0.732 0.122,0.102 0.248,0.188 0.381,0.26 0.133,0.07 0.259,0.127 0.381,0.167 0.184,0.325 0.417,0.539 0.702,0.641 0.284,0.101 0.568,0.121 0.853,0.06 C 11.078,3.781 11.343,3.653 11.587,3.46 11.831,3.267 12.003,3.038 12.105,2.774 12.207,2.428 12.228,2.129 12.167,1.875 12.105,1.62 11.993,1.341 11.831,1.036 11.464,0.284 11.003,-0.321 10.443,-0.778 9.884,-1.236 9.258,-1.571 8.569,-1.784 7.876,-1.998 7.15,-2.1 6.387,-2.089 5.625,-2.079 4.864,-1.988 4.101,-1.815 3.339,-1.641 2.607,-1.399 1.905,-1.083 1.205,-0.768 0.568,-0.407 0,0" />
      </g>
      <g
         transform="matrix(0.35277777,0,0,-0.35277777,119.61797,168.61659)"
         id="g4978">
        <path
           inkscape:connector-curvature="0"
           id="path4980"
           style="fill:#ffffff;fill-opacity:1;fill-rule:nonzero;stroke:none"
           d="M 0,0 C 0.65,0.041 1.103,-0.076 1.357,-0.35 1.611,-0.625 1.738,-0.955 1.738,-1.341 1.738,-1.484 1.724,-1.647 1.693,-1.829 1.662,-2.013 1.571,-2.195 1.418,-2.379 1.266,-2.561 1.037,-2.714 0.732,-2.835 0.427,-2.959 0,-3.029 -0.549,-3.049 c -0.406,0.081 -0.737,0.233 -0.991,0.457 -0.254,0.223 -0.381,0.508 -0.381,0.854 0,0.142 0.015,0.31 0.046,0.503 0.03,0.193 0.107,0.372 0.228,0.534 0.122,0.163 0.311,0.31 0.565,0.442 C -0.829,-0.127 -0.468,-0.041 0,0 m 1.433,-18.784 c -0.06,-0.304 -0.193,-0.553 -0.396,-0.747 -0.203,-0.192 -0.437,-0.315 -0.702,-0.366 -0.264,-0.05 -0.524,-0.035 -0.777,0.046 -0.254,0.082 -0.453,0.234 -0.595,0.458 -0.224,0.04 -0.432,0.141 -0.624,0.305 -0.194,0.162 -0.342,0.396 -0.444,0.701 0.061,1.727 0.083,3.436 0.061,5.123 -0.019,1.686 0.041,3.395 0.185,5.122 0.019,0.367 0.033,0.718 0.045,1.052 0.009,0.336 0.034,0.661 0.076,0.976 0.04,0.316 0.126,0.615 0.259,0.9 0.131,0.284 0.351,0.558 0.656,0.823 0.101,0.082 0.29,0.123 0.564,0.123 0.274,0 0.473,0.039 0.594,0.122 C 0.762,-4.33 1.057,-4.589 1.22,-4.924 1.382,-5.26 1.484,-5.626 1.525,-6.023 1.565,-6.419 1.56,-6.83 1.51,-7.257 1.458,-7.684 1.433,-8.091 1.433,-8.477 c -0.06,-1.728 -0.097,-3.446 -0.106,-5.153 -0.01,-1.709 0.025,-3.425 0.106,-5.154" />
      </g>
      <g
         transform="matrix(0.35277777,0,0,-0.35277777,123.38288,171.08014)"
         id="g4982">
        <path
           inkscape:connector-curvature="0"
           id="path4984"
           style="fill:#ffffff;fill-opacity:1;fill-rule:nonzero;stroke:none"
           d="m 0,0 c -0.57,-0.081 -1.011,-0.168 -1.327,-0.259 -0.314,-0.09 -0.574,-0.233 -0.778,-0.427 -0.203,-0.194 -0.381,-0.446 -0.533,-0.762 -0.153,-0.315 -0.35,-0.737 -0.595,-1.265 1.038,0.019 2.094,0 3.172,-0.061 1.077,-0.061 2.124,-0.072 3.14,-0.031 -0.06,0.57 -0.187,1.022 -0.38,1.357 -0.194,0.335 -0.432,0.6 -0.717,0.793 C 1.697,-0.463 1.387,-0.32 1.051,-0.228 0.717,-0.136 0.366,-0.061 0,0 m 2.378,-5.335 c -0.385,0 -0.844,0.01 -1.372,0.03 -0.529,0.019 -1.072,0.031 -1.631,0.031 h -1.631 c -0.53,0 -0.987,-0.012 -1.372,-0.031 -0.063,-0.447 -0.037,-0.895 0.075,-1.341 0.112,-0.448 0.301,-0.875 0.565,-1.281 0.263,-0.407 0.599,-0.773 1.006,-1.098 0.406,-0.325 0.884,-0.579 1.433,-0.763 0.203,-0.081 0.457,-0.152 0.762,-0.213 0.306,-0.061 0.615,-0.102 0.931,-0.122 0.315,-0.02 0.604,-0.01 0.868,0.031 0.265,0.04 0.468,0.112 0.611,0.214 0.182,0.121 0.376,0.223 0.579,0.303 0.203,0.082 0.366,0.184 0.488,0.305 0.041,0.041 0.061,0.087 0.061,0.138 0,0.051 0.01,0.107 0.031,0.167 l 0.029,-0.031 c 0.122,0.224 0.291,0.362 0.504,0.413 0.214,0.05 0.406,0.045 0.58,-0.016 0.172,-0.06 0.298,-0.178 0.38,-0.351 0.081,-0.172 0.071,-0.381 -0.031,-0.625 -0.407,-0.894 -0.964,-1.59 -1.676,-2.088 -0.712,-0.499 -1.495,-0.808 -2.349,-0.931 -0.853,-0.121 -1.733,-0.075 -2.637,0.138 -0.905,0.214 -1.754,0.579 -2.547,1.098 -0.792,0.519 -1.488,1.174 -2.087,1.967 -0.601,0.792 -1.007,1.697 -1.221,2.713 -0.213,1.017 -0.203,2.139 0.03,3.37 0.235,1.23 0.789,2.546 1.663,3.948 0.345,0.55 0.869,0.997 1.569,1.343 0.703,0.345 1.475,0.574 2.318,0.686 C -0.849,2.781 0.019,2.76 0.914,2.608 1.809,2.456 2.628,2.17 3.37,1.754 4.112,1.336 4.716,0.768 5.183,0.046 c 0.468,-0.722 0.711,-1.6 0.732,-2.638 0,-0.711 -0.01,-1.254 -0.03,-1.63 C 5.864,-4.599 5.748,-4.874 5.534,-5.046 5.321,-5.218 4.97,-5.315 4.483,-5.335 c -0.488,-0.021 -1.19,-0.021 -2.105,0" />
      </g>
      <g
         transform="matrix(0.35277777,0,0,-0.35277777,107.79511,171.63884)"
         id="g4986">
        <path
           inkscape:connector-curvature="0"
           id="path4988"
           style="fill:#ffffff;fill-opacity:1;fill-rule:nonzero;stroke:none"
           d="m 0,0 c 0.268,-0.144 0.522,-0.17 0.764,-0.08 0.24,0.089 0.453,0.232 0.641,0.428 0.188,0.196 0.357,0.428 0.509,0.696 0.151,0.267 0.272,0.5 0.362,0.695 0.142,0.303 0.183,0.576 0.12,0.818 C 2.333,2.797 2.124,2.972 1.767,3.079 1.498,3.167 1.173,3.266 0.79,3.372 0.407,3.479 0.049,3.506 -0.281,3.453 -0.611,3.4 -0.87,3.23 -1.058,2.944 -1.245,2.659 -1.275,2.185 -1.151,1.525 -1.062,1.186 -0.907,0.865 -0.683,0.562 -0.46,0.258 -0.232,0.071 0,0 M -0.268,-3.935 C -0.839,-4.774 -1.2,-5.509 -1.352,-6.144 -1.503,-6.777 -1.522,-7.3 -1.405,-7.709 c 0.116,-0.411 0.339,-0.71 0.669,-0.897 0.329,-0.188 0.683,-0.237 1.057,-0.147 0.161,0.035 0.424,0.295 0.79,0.776 0.366,0.482 0.852,1.071 1.459,1.767 z M 9.797,-10.52 c -0.178,-0.464 -0.397,-0.746 -0.655,-0.843 -0.26,-0.098 -0.545,-0.084 -0.858,0.04 -0.311,0.126 -0.641,0.335 -0.99,0.63 -0.347,0.294 -0.696,0.601 -1.043,0.922 C 5.902,-9.449 5.563,-9.145 5.234,-8.86 4.902,-8.575 4.595,-8.37 4.31,-8.245 3.952,-8.709 3.569,-9.154 3.158,-9.583 c -0.41,-0.429 -0.847,-0.829 -1.31,-1.205 -0.215,-0.178 -0.483,-0.326 -0.803,-0.441 -0.322,-0.115 -0.653,-0.192 -0.991,-0.228 -0.339,-0.036 -0.682,-0.03 -1.031,0.013 -0.347,0.045 -0.656,0.139 -0.923,0.281 -0.875,0.464 -1.509,1.076 -1.901,1.834 -0.392,0.759 -0.575,1.567 -0.549,2.423 0.027,0.856 0.259,1.718 0.696,2.583 0.437,0.866 1.048,1.637 1.834,2.315 -0.5,0.678 -0.919,1.361 -1.258,2.047 -0.34,0.687 -0.513,1.348 -0.522,1.981 -0.01,0.634 0.201,1.227 0.629,1.781 0.428,0.552 1.151,1.025 2.168,1.418 0.499,0.196 0.955,0.312 1.365,0.348 C 0.973,5.603 1.369,5.576 1.754,5.487 2.137,5.398 2.52,5.242 2.905,5.019 3.289,4.796 3.712,4.524 4.176,4.203 4.282,4.096 4.372,3.979 4.444,3.855 4.515,3.73 4.568,3.604 4.604,3.479 4.853,2.981 4.88,2.463 4.684,1.927 4.487,1.392 4.189,0.869 3.788,0.361 3.386,-0.148 2.939,-0.625 2.449,-1.071 1.959,-1.517 1.534,-1.892 1.177,-2.196 1.427,-2.463 1.664,-2.704 1.888,-2.917 2.11,-3.132 2.333,-3.337 2.557,-3.533 2.78,-3.73 3.002,-3.93 3.225,-4.136 c 0.223,-0.205 0.469,-0.441 0.736,-0.71 0.875,0.857 1.651,1.62 2.329,2.289 0.679,0.67 1.4,1.317 2.168,1.941 0.09,0.108 0.192,0.151 0.308,0.134 C 8.882,-0.5 8.98,-0.549 9.061,-0.629 9.142,-0.71 9.19,-0.826 9.208,-0.977 9.226,-1.129 9.172,-1.285 9.048,-1.445 L 7.656,-3.533 C 7.299,-3.998 6.956,-4.466 6.625,-4.939 6.294,-5.412 5.97,-5.88 5.649,-6.344 c 0.177,-0.447 0.476,-0.821 0.896,-1.124 0.42,-0.305 0.852,-0.598 1.298,-0.883 0.446,-0.286 0.86,-0.594 1.246,-0.924 0.383,-0.331 0.619,-0.745 0.708,-1.245" />
      </g>
    </g>
  </g>
</svg>
